[module pageInscription('http://www.eclipse.org/uml2/3.0.0/UML')/]
[import  sare::ModelToText::Generator::services::UmlServices/]
[template public fullFilePath(class : Class)]
[if (hasStereotype('javax.persistence.Entity'))]
view/[name/]Inscription.xhtml
[/if]

[/template]


[template public pageInscription(class : uml::Class)]
[comment This template is called by the main module file /]
[file (fullFilePath(), false))]
<!DOCTYPE composition PUBLIC "-//W3C//DTD XHTML 1.0 Transitional//EN"
    "http://www.w3.org/TR/xhtml1/DTD/xhtml1-transitional.dtd">
<ui:composition xmlns="http://www.w3.org/1999/xhtml"
    xmlns:s="http://jboss.com/products/seam/taglib"
    xmlns:ui="http://java.sun.com/jsf/facelets"
    xmlns:f="http://java.sun.com/jsf/core"
    xmlns:h="http://java.sun.com/jsf/html"
    xmlns:rich="http://richfaces.org/rich"
    template="layout/template.xhtml">
    
    <!-- content -->
    <ui:define name="body">

    <div class ="section">
    <h1>[name/] Inscription</h1>
    </div>

    <h:form id="[name.toLowerFirst()/]" styleClass="edit">

        <rich:panel>
    
[for (attribute)]
[if (upper <> (-1))]
[if (isPrimitive())]
[if (not (owner.getIdAttribute().toLower() = name.toLower()))]
           <s:decorate id="[name.toUpperFirst()/]Field" template="layout/edit.xhtml">
                <ui:define name="label">[name.toUpperFirst()/]</ui:define>
                <h:inputText id="[name/]"
                           size="20"
                      maxlength="20"
                          value="#{[owner.getClassName().toLowerFirst()/].[name/]}">
                </h:inputText>
            </s:decorate>
[/if]
[/if]
[/if]
[/for]
     
            <div style="clear:both">
                <span class="required">*</span>
                required fields
            </div> 

        </rich:panel>
     
                <h:commandButton id="confirm"
                         value="Confrim"
                         action="#{[name/]Inscription.confirm}"/>
                         
                 <h:commandButton id="cancel"
                         value="Cancel"
                         action="#{[name/]Inscription.cancel}"/>
       
        </h:form>
    </ui:define>
</ui:composition>
[/file]
[/template]



