[module pageDetails('http://www.eclipse.org/uml2/3.0.0/UML')/]
[import  sare::ModelToText::Generator::services::UmlServices/]
[template public fullFilePath(class : Class)]
[if (hasStereotype('javax.persistence.Entity'))]
view/[name/]Details.xhtml
[/if]

 
[/template]


[template public pageDetails(class : uml::Class)]
[comment This template is called by the main module file /]
[file (fullFilePath(), false))]


<!DOCTYPE composition PUBLIC "-//W3C//DTD XHTML 1.0 Transitional//EN"
    "http://www.w3.org/TR/xhtml1/DTD/xhtml1-transitional.dtd">
<ui:composition xmlns="http://www.w3.org/1999/xhtml"
    xmlns:s="http://jboss.com/products/seam/taglib"
    xmlns:ui="http://java.sun.com/jsf/facelets"
    xmlns:f="http://java.sun.com/jsf/core"
    xmlns:h="http://java.sun.com/jsf/html"
    xmlns:rich="http://richfaces.org/rich"
    xmlns:a="http://richfaces.org/a4j"
    template="layout/template.xhtml">
    
    <!-- content -->
    <ui:define name="body">
    
    <div class ="section">
    <h1>[name/] Detail</h1>
    </div>

<h:form id="[name/]" styleClass="edit">   


[for (attribute)]
        
[if (upper <> (-1))]
[if (isPrimitive())]
        <s:decorate id="Decorate[name.toUpperFirst()/]" template="layout/display.xhtml">             
        <ui:define name="label">[name.toUpperFirst()/]:</ui:define>
        #{[owner.getClassName().toLowerFirst()/].[name/]}
        </s:decorate>
[else]
        <s:decorate id="Decorate[name.toUpperFirst()/]" template="layout/display.xhtml">             
        <ui:define name="label">[name.toUpperFirst()/]:</ui:define>
        #{[owner.getClassName().toLowerFirst()/].[name/].[owner.getIdAttribute()/]}
        </s:decorate> 
[/if]
[/if]
[/for]




[for (attribute)]
[if (hasStereotype('javax.persistence.OneToMany'))]
            <a:commandButton id="find[name.toUpperFirst()/]" value="view [name.toUpperFirst()/]" action="#{[getType2()/]Inscription.get[getType2()/]In[owner.getClassName()/]ByID}" reRender="searchResults[name.toUpperFirst()/]"/>
            &#160;
            <a:outputPanel id="searchResults[name.toUpperFirst()/]">
            <div class="section">
              <h:outputText id="No[name.toUpperFirst()/]FoundMessage"
                value="No [name/]s Found"
                rendered="#{[getMappedbyOTM2(getNearestPackage(), owner.getClassName(), getType2())/]ByID != null and [getMappedbyOTM2(getNearestPackage(), owner.getClassName(), getType2())/]ByID.rowCount==0}" />
              <h:dataTable id="[name/]" value="#{[getMappedbyOTM2(getNearestPackage(), owner.getClassName(), getType2())/]ByID}" var="[getType2().substring(0 + 1, 3).toLowerFirst()/]" rendered="#{[getMappedbyOTM2(getNearestPackage(), owner.getClassName(), getType2())/]ByID.rowCount>0}">
               
[for (getClass().attribute)]
[if (upper <> '-1')]
[if (isPrimitive())]
                <h:column id="column[name.toUpperFirst()/]">
                  <f:facet id="[name.toUpperFirst()/]Facet" name="header"> [name.toUpperFirst()/] </f:facet>
                    #{[owner.getClassName().toLowerFirst().substring(0 + 1, 3)/].[name/]}
                </h:column>
[/if]
[/if]
[/for]
                
                <h:column id="column3">
                  <f:facet id="ActionFacet" name="header">Action</f:facet>          
                  <s:link id="view[name/]" value="View" action="#{[getType2()/]Inscription.select[getType2()/]([getType2().substring(0 + 1, 3).toLowerFirst()/])}"/>
                </h:column>
              </h:dataTable>
            </div>
          </a:outputPanel>
[/if]
[/for]

        <s:button id="Edit"
                         value="Edit"
                         view="/[name/]Edit.xhtml"/>
                         
        <h:commandButton id="delete"
                         value="Delete"
                         action="#{[name/]Inscription.delete}"/>

 </h:form>

    </ui:define>
</ui:composition>
[/file]
[/template]



