[comment encoding = MacRoman /]
[module UmlServices('http://www.eclipse.org/uml2/3.0.0/UML')/]

[query public getProperty(arg0 : Element) : Property
	= invoke('sare.m2t.generator.services.UmlServices', 'getProperty(org.eclipse.uml2.uml.Element)', Sequence{arg0}) /]

[query public getClass(arg0 : Element) : Class
	= invoke('sare.m2t.generator.services.UmlServices', 'getClass(org.eclipse.uml2.uml.Element)', Sequence{arg0}) /]

[query public isPrimitive(arg0 : Element) : Boolean
	= invoke('sare.m2t.generator.services.UmlServices', 'isPrimitive(org.eclipse.uml2.uml.Element)', Sequence{arg0}) /]

[query public getClassName(arg0 : Element) : String
	= invoke('sare.m2t.generator.services.UmlServices', 'getClassName(org.eclipse.uml2.uml.Element)', Sequence{arg0}) /]

[query public getComment(arg0 : Element, arg1 : String) : Comment
	= invoke('sare.m2t.generator.services.UmlServices', 'getComment(org.eclipse.uml2.uml.Element, java.lang.String)', Sequence{arg0, arg1}) /]

[query public getParamComment(arg0 : Element, arg1 : String) : Comment
    = invoke('sare.m2t.generator.services.UmlServices', 'getParamComment(org.eclipse.uml2.uml.Element, java.lang.String)', Sequence{arg0, arg1}) /]

[query public getPropertyName(arg0 : Element) : String
	= invoke('sare.m2t.generator.services.UmlServices', 'getPropertyName(org.eclipse.uml2.uml.Element)', Sequence{arg0}) /]

[query public toPath(arg0 : String) : String
	= invoke('sare.m2t.generator.services.UmlServices', 'toPath(java.lang.String)', Sequence{arg0}) /]

[query public isClass(arg0 : Element) : Boolean
	= invoke('sare.m2t.generator.services.UmlServices', 'isClass(org.eclipse.uml2.uml.Element)', Sequence{arg0}) /]

[query public hasComment(arg0 : Element, arg1 : String) : Boolean
	= invoke('sare.m2t.generator.services.UmlServices', 'hasComment(org.eclipse.uml2.uml.Element, java.lang.String)', Sequence{arg0, arg1}) /]

[query public getHierarchy(arg0 : Element) : String
	= invoke('sare.m2t.generator.services.UmlServices', 'getHierarchy(org.eclipse.uml2.uml.Element)', Sequence{arg0}) /]

[query public isProperty(arg0 : Element) : Boolean
	= invoke('sare.m2t.generator.services.UmlServices', 'isProperty(org.eclipse.uml2.uml.Element)', Sequence{arg0}) /]

[query public isHierarchy(arg0 : Element) : Boolean
	= invoke('sare.m2t.generator.services.UmlServices', 'isHierarchy(org.eclipse.uml2.uml.Element)', Sequence{arg0}) /]

[query public getType2(arg0 : Element) : String
	= invoke('sare.m2t.generator.services.UmlServices', 'getType2(org.eclipse.uml2.uml.Element)', Sequence{arg0}) /]

[query public getTypeAssociation(arg0 : Element, arg1 : String) : String
	= invoke('sare.m2t.generator.services.UmlServices', 'getTypeAssociation(org.eclipse.uml2.uml.Element, java.lang.String)', Sequence{arg0, arg1}) /]

[query public hasType(arg0 : Element) : Boolean
	= invoke('sare.m2t.generator.services.UmlServices', 'hasType(org.eclipse.uml2.uml.Element)', Sequence{arg0}) /]

[query public getParameterMultiplicity(arg0 : Element) : Integer
	= invoke('sare.m2t.generator.services.UmlServices', 'getParameterMultiplicity(org.eclipse.uml2.uml.Element)', Sequence{arg0}) /]

[query public builAnotationAttributes(arg0 : Element) : String
	= invoke('sare.m2t.generator.services.UmlServices', 'builAnotationAttributes(org.eclipse.uml2.uml.Element)', Sequence{arg0}) /]

[query public getAsosiationsType(arg0 : Element) : String
	= invoke('sare.m2t.generator.services.UmlServices', 'getAsosiationsType(org.eclipse.uml2.uml.Element)', Sequence{arg0}) /]

[query public getIdAttribute(arg0 : Element) : String
	= invoke('sare.m2t.generator.services.UmlServices', 'getIdAttribute(org.eclipse.uml2.uml.Element)', Sequence{arg0}) /]

[query public getMappedbyOTM2(arg0 : Element, arg1 : Element, arg2 : String, arg3 : String) : String
	= invoke('sare.m2t.generator.services.UmlServices', 'getMappedbyOTM2(org.eclipse.uml2.uml.Element, org.eclipse.uml2.uml.Element, java.lang.String, java.lang.String)', Sequence{arg0, arg1, arg2, arg3}) /]

[query public getMappedbyOTO2(arg0 : Element, arg1 : Element, arg2 : String, arg3 : String) : String
	= invoke('sare.m2t.generator.services.UmlServices', 'getMappedbyOTO2(org.eclipse.uml2.uml.Element, org.eclipse.uml2.uml.Element, java.lang.String, java.lang.String)', Sequence{arg0, arg1, arg2, arg3}) /]

