[module SBinscription('http://www.eclipse.org/uml2/3.0.0/UML')/]
[import  sare::ModelToText::Generator::services::UmlServices/]
[template public fullFilePath(class : Class)]
[if (hasStereotype('javax.persistence.Entity'))]
[_package.name.toPath()/]/[name/]Inscription.java
[/if]

[/template]


[template public SBinscription(class : uml::Class)]
[comment This template is called by the main module file /]
[file (fullFilePath(), false))]
package asignaturas.test.action;

import javax.ejb.Local;
import java.util.*;

@Local
public interface [name/]Inscription {

    public void new[name/]();
    public void cancel();
    public void destroy();
    public void confirm();
    public void select[name/]([name/] selected[name/]);
[for (attribute)]
[if (getAsosiationsType() = 'ManyToOne')]
    public void insertIn[name.toUpperFirst()/]([owner.getClassName()/] selected[owner.getClassName()/]);
    public List<[owner.getClassName()/]> get[owner.getClassName()/]In[getType2()/]ByID();
[/if]
[if (getAsosiationsType() = 'OneToOne')]
    public void select[getType2()/]([getType2()/] selected[getType2()/]);
[/if]
[/for]
    public void edit[name/]();
    public void delete();
   
}
[/file]
[/template]



