[comment encoding = UTF-8 /]
[module main('http://www.eclipse.org/uml2/3.0.0/UML','http://sare/language/acm')/]
[import sare::ModelToText::Generator::templates::java::EB/]
[import sare::ModelToText::Generator::templates::java::SBinscription/]
[import sare::ModelToText::Generator::templates::java::SBinscriptionAction/]
[import sare::ModelToText::Generator::templates::java::SBsearch/]
[import sare::ModelToText::Generator::templates::java::SBsearchAction/]
[import sare::ModelToText::Generator::templates::configuration::pages/]
[import sare::ModelToText::Generator::templates::pages::menu/]
[import sare::ModelToText::Generator::templates::pages::pageDetails/]
[import sare::ModelToText::Generator::templates::pages::pageEdit/]
[import sare::ModelToText::Generator::templates::pages::pageHome/]
[import sare::ModelToText::Generator::templates::pages::pageInscription/]
[import sare::ModelToText::Generator::templates::pages::templates/]



[template public mainClass(aClass : uml::Class)]

    [comment @main /]
    [aClass.EB()/]
    [comment @main /]
    [aClass.SBinscription()/]
    [comment @main /]
    [aClass.SBinscriptionAction()/]
    [comment @main /]
    [aClass.SBsearch()/]
    [comment @main /]
    [aClass.SBsearchAction()/]
    [comment @main /]
    [aClass.pageDetails()/]
    [comment @main /]
    [aClass.pageEdit()/]
    [comment @main /]
    [aClass.pageHome()/]
    [comment @main /]
    [aClass.pageInscription()/]
[/template]

[template public mainModel(aModel : uml::Model)]

    [comment @main /]
    [aModel.pages()/]
    [comment @main /]
    [aModel.templates()/]
    [comment @main /]
    [aModel.menu()/]

[/template]

